{
  "ReRoutes": [
    {
      "DownstreamPathTemplate": "/api/v1/message-1",
      "DownstreamScheme": "http",
      "UpstreamPathTemplate": "/api/v1/message-1",
      "ServiceName": "message-server-service-1",
      "UpstreamHttpMethod": [
        "Get"
      ]
    },
    {
      "DownstreamPathTemplate": "/api/v1/message-2",
      "DownstreamScheme": "http",
      "UpstreamPathTemplate": "/api/v1/message-2",
      "ServiceName": "message-server-service-2",
      "UpstreamHttpMethod": [
        "Get"
      ]
    }
  ],
  "GlobalConfiguration": {
    "ServiceDiscoveryProvider": {
      "Namespace": "p41",
      "Type": "kube"
    }
  }
}